GO:0032196	1.1622882533903894e-22	12/57	biological_process: transposition	b3045, b1403, b1997, b2861, b0360, b1402, b4272, b0361, b2860, b1996, b4273, b3044
GO:0006310	2.225465739447219e-19	12/107	biological_process: DNA recombination	b3045, b1403, b1997, b2861, b0360, b1402, b4272, b0361, b2860, b1996, b4273, b3044
GO:0003677	2.1907645182875454e-11	12/496	molecular_function: DNA binding	b3045, b1403, b1997, b2861, b0360, b1402, b4272, b0361, b2860, b1996, b4273, b3044
GO:0015074	2.472516625562888e-10	6/31	biological_process: DNA integration	b3045, b1402, b0361, b2860, b1996, b4273
GO:0004803	9.697608347281728e-10	6/39	molecular_function: transposase activity	b1403, b1997, b2861, b4272, b0360, b3044
GO:0006313	3.329943165125711e-09	6/48	biological_process: transposition, DNA-mediated	b1403, b1997, b2861, b4272, b0360, b3044
GO:0003676	1.2797338625228194e-07	6/89	molecular_function: nucleic acid binding	b3045, b1402, b0361, b2860, b1996, b4273
